-0.500000 0.985860 0.027686 1.319439 0.414012 0.000000 0.000000 -0.000128 0.007764

-0.400000 0.997438 0.028190 1.336124 0.415014 -0.000001 0.000000 -0.000360 0.007987

-0.300000 1.008247 0.028357 1.345654 0.420006 0.000000 0.000000 0.000215 0.007444

-0.200000 1.021509 0.028571 1.358992 0.422555 0.000001 0.000000 -0.000245 0.007453

-0.100000 1.033957 0.029303 1.377660 0.423933 0.000000 0.000000 -0.000048 0.007306

0.000000 1.045771 0.029462 1.388398 0.426631 0.000001 0.000000 0.000150 0.007493

0.100000 1.058399 0.029519 1.402756 0.426315 0.000001 0.000000 0.000029 0.007400

0.200000 1.071475 0.029947 1.415925 0.433159 -0.000001 0.000000 0.000026 0.007550

0.300000 1.083369 0.030319 1.434242 0.436372 0.000000 0.000000 -0.000129 0.007420

0.400000 1.096548 0.030424 1.444971 0.438508 -0.000001 0.000000 0.000354 0.007735

0.500000 1.110141 0.030744 1.458291 0.440044 -0.000002 0.000000 0.001127 0.007554

0.600000 1.120792 0.030685 1.475957 0.441210 -0.000000 0.000000 -0.000111 0.007223

0.700000 1.135246 0.030680 1.492372 0.440280 0.000001 0.000000 0.000267 0.007308

0.800000 1.148617 0.031277 1.503655 0.439367 -0.000001 0.000000 0.001360 0.007063

0.900000 1.160211 0.031390 1.524450 0.449382 0.000000 0.000000 -0.000020 0.007464

1.000000 1.174706 0.030838 1.548833 0.439783 0.000001 0.000000 -0.000704 0.007118

1.100000 1.186623 0.031362 1.557534 0.440189 -0.000001 0.000000 0.000309 0.007292

1.200000 1.200454 0.031274 1.574473 0.443163 0.000002 0.000000 -0.000205 0.007231

1.300000 1.210629 0.031501 1.584384 0.448314 -0.000001 0.000000 -0.000185 0.007218

1.400000 1.225452 0.030894 1.602805 0.444122 0.000001 0.000000 -0.000010 0.007314

1.500000 1.239734 0.030836 1.618204 0.436289 0.000002 0.000000 0.000197 0.007112

1.600000 1.253727 0.031157 1.630663 0.443253 -0.000001 0.000000 -0.000179 0.006893

1.700000 1.264887 0.030564 1.643580 0.440302 0.000001 0.000000 0.000076 0.007586

1.800000 1.277429 0.030817 1.668446 0.433907 -0.000001 0.000000 -0.000024 0.006790

1.900000 1.289814 0.030414 1.674505 0.435925 0.000000 0.000000 -0.000462 0.006610

2.000000 1.304497 0.030513 1.697585 0.434885 -0.000000 0.000000 -0.000349 0.007667

2.100000 1.315649 0.029661 1.707440 0.439582 0.000002 0.000000 0.000275 0.007451

2.200000 1.327282 0.029861 1.724615 0.432849 0.000002 0.000000 -0.000729 0.007442

2.300000 1.341624 0.029832 1.736000 0.428355 -0.000001 0.000000 -0.000241 0.007496

2.400000 1.350666 0.029278 1.753726 0.422732 -0.000000 0.000000 0.000402 0.007569