%!PS-Adobe-3.0 EPSF-3.0
%%Creator: MATLAB, The Mathworks, Inc.
%%Title: F:\Kurs_dipl\Pavlin\Ml\w_hnoise_\prob_dens_Hns.eps
%%CreationDate: 05/07/2013  18:31:21
%%DocumentNeededFonts: Helvetica
%%+ Times-Bold
%%+ Times-Roman
%%DocumentProcessColors: Cyan Magenta Yellow Black
%%LanguageLevel: 2
%%Pages: 1
%%BoundingBox:    35   182   547   593
%%EndComments

%%BeginProlog
% MathWorks dictionary
/MathWorks 160 dict begin
% definition operators
/bdef {bind def} bind def
/ldef {load def} bind def
/xdef {exch def} bdef
/xstore {exch store} bdef
% operator abbreviations
/c  /clip ldef
/cc /concat ldef
/cp /closepath ldef
/gr /grestore ldef
/gs /gsave ldef
/mt /moveto ldef
/np /newpath ldef
/cm /currentmatrix ldef
/sm /setmatrix ldef
/rm /rmoveto ldef
/rl /rlineto ldef
/s {show newpath} bdef
/sc {setcmykcolor} bdef
/sr /setrgbcolor ldef
/sg /setgray ldef
/w /setlinewidth ldef
/j /setlinejoin ldef
/cap /setlinecap ldef
/rc {rectclip} bdef
/rf {rectfill} bdef
% page state control
/pgsv () def
/bpage {/pgsv save def} bdef
/epage {pgsv restore} bdef
/bplot /gsave ldef
/eplot {stroke grestore} bdef
% orientation switch
/portraitMode 0 def /landscapeMode 1 def /rotateMode 2 def
% coordinate system mappings
/dpi2point 0 def
% font control
/FontSize 0 def
/FMS {/FontSize xstore findfont [FontSize 0 0 FontSize neg 0 0]
  makefont setfont} bdef
/ISOLatin1Encoding where {pop /WindowsLatin1Encoding 256 array bdef
ISOLatin1Encoding WindowsLatin1Encoding copy pop
/.notdef/.notdef/quotesinglbase/florin/quotedblbase/ellipsis/dagger
/daggerdbl/circumflex/perthousand/Scaron/guilsinglleft/OE/.notdef/.notdef
/.notdef/.notdef/quoteleft/quoteright/quotedblleft/quotedblright/bullet
/endash/emdash/tilde/trademark/scaron/guilsinglright/oe/.notdef/.notdef
/Ydieresis WindowsLatin1Encoding 128 32 getinterval astore pop}
{/WindowsLatin1Encoding StandardEncoding bdef} ifelse
/reencode {exch dup where {pop load} {pop StandardEncoding} ifelse
  exch dup 3 1 roll findfont dup length dict begin
  { 1 index /FID ne {def}{pop pop} ifelse } forall
  /Encoding exch def currentdict end definefont pop} bdef
/isroman {findfont /CharStrings get /Agrave known} bdef
/FMSR {3 1 roll 1 index dup isroman {reencode} {pop pop} ifelse
  exch FMS} bdef
/csm {1 dpi2point div -1 dpi2point div scale neg translate
 dup landscapeMode eq {pop -90 rotate}
  {rotateMode eq {90 rotate} if} ifelse} bdef
% line types: solid, dotted, dashed, dotdash
/SO { [] 0 setdash } bdef
/DO { [.5 dpi2point mul 4 dpi2point mul] 0 setdash } bdef
/DA { [6 dpi2point mul] 0 setdash } bdef
/DD { [.5 dpi2point mul 4 dpi2point mul 6 dpi2point mul 4
  dpi2point mul] 0 setdash } bdef
% macros for lines and objects
/L {lineto stroke} bdef
/MP {3 1 roll moveto 1 sub {rlineto} repeat} bdef
/AP {{rlineto} repeat} bdef
/PDlw -1 def
/W {/PDlw currentlinewidth def setlinewidth} def
/PP {closepath eofill} bdef
/DP {closepath stroke} bdef
/MR {4 -2 roll moveto dup  0 exch rlineto exch 0 rlineto
  neg 0 exch rlineto closepath} bdef
/FR {MR stroke} bdef
/PR {MR fill} bdef
/L1i {{currentfile picstr readhexstring pop} image} bdef
/tMatrix matrix def
/MakeOval {newpath tMatrix currentmatrix pop translate scale
0 0 1 0 360 arc tMatrix setmatrix} bdef
/FO {MakeOval stroke} bdef
/PO {MakeOval fill} bdef
/PD {currentlinewidth 2 div 0 360 arc fill
   PDlw -1 eq not {PDlw w /PDlw -1 def} if} def
/FA {newpath tMatrix currentmatrix pop translate scale
  0 0 1 5 -2 roll arc tMatrix setmatrix stroke} bdef
/PA {newpath tMatrix currentmatrix pop	translate 0 0 moveto scale
  0 0 1 5 -2 roll arc closepath tMatrix setmatrix fill} bdef
/FAn {newpath tMatrix currentmatrix pop translate scale
  0 0 1 5 -2 roll arcn tMatrix setmatrix stroke} bdef
/PAn {newpath tMatrix currentmatrix pop translate 0 0 moveto scale
  0 0 1 5 -2 roll arcn closepath tMatrix setmatrix fill} bdef
/vradius 0 def /hradius 0 def /lry 0 def
/lrx 0 def /uly 0 def /ulx 0 def /rad 0 def
/MRR {/vradius xdef /hradius xdef /lry xdef /lrx xdef /uly xdef
  /ulx xdef newpath tMatrix currentmatrix pop ulx hradius add uly
  vradius add translate hradius vradius scale 0 0 1 180 270 arc 
  tMatrix setmatrix lrx hradius sub uly vradius add translate
  hradius vradius scale 0 0 1 270 360 arc tMatrix setmatrix
  lrx hradius sub lry vradius sub translate hradius vradius scale
  0 0 1 0 90 arc tMatrix setmatrix ulx hradius add lry vradius sub
  translate hradius vradius scale 0 0 1 90 180 arc tMatrix setmatrix
  closepath} bdef
/FRR {MRR stroke } bdef
/PRR {MRR fill } bdef
/MlrRR {/lry xdef /lrx xdef /uly xdef /ulx xdef /rad lry uly sub 2 div def
  newpath tMatrix currentmatrix pop ulx rad add uly rad add translate
  rad rad scale 0 0 1 90 270 arc tMatrix setmatrix lrx rad sub lry rad
  sub translate rad rad scale 0 0 1 270 90 arc tMatrix setmatrix
  closepath} bdef
/FlrRR {MlrRR stroke } bdef
/PlrRR {MlrRR fill } bdef
/MtbRR {/lry xdef /lrx xdef /uly xdef /ulx xdef /rad lrx ulx sub 2 div def
  newpath tMatrix currentmatrix pop ulx rad add uly rad add translate
  rad rad scale 0 0 1 180 360 arc tMatrix setmatrix lrx rad sub lry rad
  sub translate rad rad scale 0 0 1 0 180 arc tMatrix setmatrix
  closepath} bdef
/FtbRR {MtbRR stroke } bdef
/PtbRR {MtbRR fill } bdef
/stri 6 array def /dtri 6 array def
/smat 6 array def /dmat 6 array def
/tmat1 6 array def /tmat2 6 array def /dif 3 array def
/asub {/ind2 exch def /ind1 exch def dup dup
  ind1 get exch ind2 get sub exch } bdef
/tri_to_matrix {
  2 0 asub 3 1 asub 4 0 asub 5 1 asub
  dup 0 get exch 1 get 7 -1 roll astore } bdef
/compute_transform {
  dmat dtri tri_to_matrix tmat1 invertmatrix 
  smat stri tri_to_matrix tmat2 concatmatrix } bdef
/ds {stri astore pop} bdef
/dt {dtri astore pop} bdef
/db {2 copy /cols xdef /rows xdef mul dup string
  currentfile 
  3 index 0 eq {/ASCIIHexDecode filter}
  {/ASCII85Decode filter 3 index 2 eq {/RunLengthDecode filter} if }
  ifelse exch readstring pop
  /bmap xdef pop pop} bdef
/it {gs np dtri aload pop moveto lineto lineto cp c
  cols rows 8 compute_transform 
  {bmap} image gr}bdef
/il {newpath moveto lineto stroke}bdef
currentdict end def
%%EndProlog

%%BeginSetup
MathWorks begin

0 cap

end
%%EndSetup

%%Page: 1 1
%%BeginPageSetup
%%PageBoundingBox:    35   182   547   593
MathWorks begin
bpage
%%EndPageSetup

%%BeginObject: obj1
bplot

/dpi2point 12 def
portraitMode 0216 7344 csm

  213   220  6145  4935 rc
85 dict begin %Colortable dictionary
/c0 { 0 0 0 sr} bdef
/c1 { 1 1 1 sr} bdef
/c2 { 1 0 0 sr} bdef
/c3 { 0 1 0 sr} bdef
/c4 { 0 0 1 sr} bdef
/c5 { 1 1 0 sr} bdef
/c6 { 1 0 1 sr} bdef
/c7 { 0 1 1 sr} bdef
c0
1 j
1 sg
   0    0 6913 5187 rf
6 w
0 4227 5356 0 0 -4227 899 4616 4 MP
PP
-5356 0 0 4227 5356 0 0 -4227 899 4616 5 MP stroke
4 w
DO
SO
6 w
0 sg
 899  389 mt 6255  389 L
 899 4616 mt 6255 4616 L
6255 4616 mt 6255  389 L
 899 4616 mt  899  389 L
 899 4616 mt 6255 4616 L
 899 4616 mt  899  389 L
 899 4616 mt  899 4562 L
 899  389 mt  899  442 L
%%IncludeResource: font Times-Bold
/Times-Bold /WindowsLatin1Encoding 216 FMSR

 845 4851 mt 
(0) s
1970 4616 mt 1970 4562 L
1970  389 mt 1970  442 L
1835 4851 mt 
(0.2) s
3041 4616 mt 3041 4562 L
3041  389 mt 3041  442 L
2906 4851 mt 
(0.4) s
4112 4616 mt 4112 4562 L
4112  389 mt 4112  442 L
3977 4851 mt 
(0.6) s
5183 4616 mt 5183 4562 L
5183  389 mt 5183  442 L
5048 4851 mt 
(0.8) s
6255 4616 mt 6255 4562 L
6255  389 mt 6255  442 L
6201 4851 mt 
(1) s
 899 4616 mt  952 4616 L
6255 4616 mt 6201 4616 L
 756 4696 mt 
(0) s
 899 4012 mt  952 4012 L
6255 4012 mt 6201 4012 L
 756 4092 mt 
(1) s
 899 3408 mt  952 3408 L
6255 3408 mt 6201 3408 L
 756 3488 mt 
(2) s
 899 2804 mt  952 2804 L
6255 2804 mt 6201 2804 L
 756 2884 mt 
(3) s
 899 2200 mt  952 2200 L
6255 2200 mt 6201 2200 L
 756 2280 mt 
(4) s
 899 1596 mt  952 1596 L
6255 1596 mt 6201 1596 L
 756 1676 mt 
(5) s
 899  992 mt  952  992 L
6255  992 mt 6201  992 L
 756 1072 mt 
(6) s
 899  389 mt  952  389 L
6255  389 mt 6201  389 L
 756  469 mt 
(7) s
 899  389 mt 6255  389 L
 899 4616 mt 6255 4616 L
6255 4616 mt 6255  389 L
 899 4616 mt  899  389 L
gs 899 389 5357 4228 rc
24 w
54 1926 54 1493 53 775 54 9 53 -587 54 -894 53 -917 54 -750 
54 -513 53 -299 54 -149 53 -63 54 -22 53 -7 54 -2 53 0 
54 0 54 0 53 0 54 0 53 0 54 0 53 0 54 0 
53 -1 54 0 54 0 53 0 54 0 53 0 54 0 53 0 
54 0 54 0 53 0 54 0 53 0 54 0 53 0 54 0 
53 0 54 0 54 0 53 0 54 0 53 0 54 0 53 0 
54 0 53 0 54 0 54 0 53 0 54 0 53 0 54 0 
53 0 54 0 54 0 53 0 54 0 53 0 54 0 53 0 
54 0 53 0 54 0 54 0 53 0 54 0 53 0 54 0 
53 0 54 0 53 0 54 0 54 0 53 0 54 0 53 0 
54 0 53 0 54 0 54 0 53 0 54 0 53 0 54 0 
53 0 54 0 53 0 54 0 54 0 53 0 54 0 53 0 
54 0 53 0 54 0 53 0 899 4616 101 MP stroke
gr

24 w
%%IncludeResource: font Symbol
/Symbol /WindowsLatin1Encoding 240 FMSR

3386 5060 mt 
(q) s
%%IncludeResource: font Helvetica
/Helvetica /WindowsLatin1Encoding 240 FMSR

3511 5060 mt 
(/) s
%%IncludeResource: font Symbol
/Symbol /WindowsLatin1Encoding 240 FMSR

3577 5060 mt 
(p) s
%%IncludeResource: font Times-Roman
/Times-Roman /WindowsLatin1Encoding 240 FMSR

 480 2389 mt  -90 rotate
(W\() s
90 rotate
%%IncludeResource: font Symbol
/Symbol /WindowsLatin1Encoding 240 FMSR

 480 2083 mt  -90 rotate
(q) s
90 rotate
%%IncludeResource: font Times-Roman
/Times-Roman /WindowsLatin1Encoding 240 FMSR

 480 1958 mt  -90 rotate
(\)) s
90 rotate
gs 899 389 5357 4228 rc
54 208 54 202 53 193 54 178 53 158 54 135 53 108 54 79 
54 47 53 16 54 -16 53 -44 54 -70 53 -91 54 -108 53 -119 
54 -123 54 -122 53 -116 54 -107 53 -93 54 -80 53 -65 54 -51 
53 -38 54 -28 54 -20 53 -13 54 -9 53 -5 54 -3 53 -2 
54 -1 54 0 53 0 54 0 53 0 54 0 53 0 54 0 
53 0 54 0 54 0 53 0 54 0 53 0 54 0 53 0 
54 0 53 0 54 0 54 0 53 0 54 0 53 0 54 -1 
53 0 54 0 54 0 53 0 54 0 53 0 54 0 53 0 
54 0 53 0 54 0 54 0 53 0 54 0 53 0 54 0 
53 0 54 0 53 0 54 0 54 0 53 0 54 0 53 0 
54 0 53 0 54 0 54 0 53 0 54 0 53 0 54 0 
53 0 54 0 53 0 54 0 54 0 53 0 54 0 53 0 
54 0 53 0 54 0 53 0 899 4616 101 MP stroke
54 41 54 40 53 41 54 39 53 39 54 39 53 37 54 37 
54 35 53 34 54 33 53 30 54 29 53 27 54 24 53 22 
54 19 54 16 53 14 54 10 53 7 54 4 53 0 54 -2 
53 -6 54 -9 54 -12 53 -15 54 -18 53 -20 54 -22 53 -24 
54 -25 54 -27 53 -27 54 -28 53 -28 54 -28 53 -27 54 -27 
53 -25 54 -25 54 -23 53 -22 54 -20 53 -19 54 -17 53 -15 
54 -14 53 -13 54 -11 54 -10 53 -9 54 -7 53 -7 54 -5 
53 -5 54 -4 54 -4 53 -3 54 -2 53 -2 54 -2 53 -1 
54 -1 53 -1 54 -1 54 -1 53 0 54 -1 53 0 54 0 
53 0 54 -1 53 0 54 0 54 0 53 0 54 0 53 0 
54 0 53 0 54 0 54 0 53 0 54 0 53 0 54 0 
53 0 54 0 53 0 54 0 54 0 53 0 54 0 53 0 
54 0 53 0 54 0 53 -1 899 4616 101 MP stroke
54 13 54 13 53 13 54 13 53 13 54 12 53 13 54 12 
54 13 53 12 54 12 53 12 54 11 53 12 54 11 53 11 
54 11 54 10 53 10 54 10 53 9 54 9 53 9 54 8 
53 8 54 7 54 7 53 6 54 6 53 6 54 4 53 5 
54 4 54 3 53 3 54 2 53 2 54 1 53 1 54 0 
53 -1 54 -1 54 -1 53 -2 54 -2 53 -3 54 -3 53 -4 
54 -4 53 -5 54 -5 54 -5 53 -5 54 -6 53 -6 54 -6 
53 -7 54 -7 54 -7 53 -7 54 -7 53 -7 54 -7 53 -7 
54 -8 53 -7 54 -8 54 -7 53 -7 54 -8 53 -7 54 -7 
53 -7 54 -7 53 -7 54 -7 54 -6 53 -7 54 -6 53 -7 
54 -6 53 -6 54 -6 54 -6 53 -6 54 -6 53 -5 54 -6 
53 -5 54 -6 53 -5 54 -5 54 -5 53 -6 54 -5 53 -5 
54 -5 53 -5 54 -5 53 -5 899 4616 101 MP stroke
54 1926 54 1493 53 775 54 9 53 -587 54 -894 53 -917 54 -750 
54 -513 53 -299 54 -149 53 -63 54 -22 53 -7 54 -2 53 0 
54 0 54 0 53 0 54 0 53 0 54 0 53 0 54 0 
53 -1 54 0 54 0 53 0 54 0 53 0 54 0 53 0 
54 0 54 0 53 0 54 0 53 0 54 0 53 0 54 0 
53 0 54 0 54 0 53 0 54 0 53 0 54 0 53 0 
54 0 53 0 54 0 54 0 53 0 54 0 53 0 54 0 
53 0 54 0 54 0 53 0 54 0 53 0 54 0 53 0 
54 0 53 0 54 0 54 0 53 0 54 0 53 0 54 0 
53 0 54 0 53 0 54 0 54 0 53 0 54 0 53 0 
54 0 53 0 54 0 54 0 53 0 54 0 53 0 54 0 
53 0 54 0 53 0 54 0 54 0 53 0 54 0 53 0 
54 0 53 0 54 0 53 0 899 4616 101 MP stroke
54 208 54 202 53 193 54 178 53 158 54 135 53 108 54 79 
54 47 53 16 54 -16 53 -44 54 -70 53 -91 54 -108 53 -119 
54 -123 54 -122 53 -116 54 -107 53 -93 54 -80 53 -65 54 -51 
53 -38 54 -28 54 -20 53 -13 54 -9 53 -5 54 -3 53 -2 
54 -1 54 0 53 0 54 0 53 0 54 0 53 0 54 0 
53 0 54 0 54 0 53 0 54 0 53 0 54 0 53 0 
54 0 53 0 54 0 54 0 53 0 54 0 53 0 54 -1 
53 0 54 0 54 0 53 0 54 0 53 0 54 0 53 0 
54 0 53 0 54 0 54 0 53 0 54 0 53 0 54 0 
53 0 54 0 53 0 54 0 54 0 53 0 54 0 53 0 
54 0 53 0 54 0 54 0 53 0 54 0 53 0 54 0 
53 0 54 0 53 0 54 0 54 0 53 0 54 0 53 0 
54 0 53 0 54 0 53 0 899 4616 101 MP stroke
54 41 54 40 53 41 54 39 53 39 54 39 53 37 54 37 
54 35 53 34 54 33 53 30 54 29 53 27 54 24 53 22 
54 19 54 16 53 14 54 10 53 7 54 4 53 0 54 -2 
53 -6 54 -9 54 -12 53 -15 54 -18 53 -20 54 -22 53 -24 
54 -25 54 -27 53 -27 54 -28 53 -28 54 -28 53 -27 54 -27 
53 -25 54 -25 54 -23 53 -22 54 -20 53 -19 54 -17 53 -15 
54 -14 53 -13 54 -11 54 -10 53 -9 54 -7 53 -7 54 -5 
53 -5 54 -4 54 -4 53 -3 54 -2 53 -2 54 -2 53 -1 
54 -1 53 -1 54 -1 54 -1 53 0 54 -1 53 0 54 0 
53 0 54 -1 53 0 54 0 54 0 53 0 54 0 53 0 
54 0 53 0 54 0 54 0 53 0 54 0 53 0 54 0 
53 0 54 0 53 0 54 0 54 0 53 0 54 0 53 0 
54 0 53 0 54 0 53 -1 899 4616 101 MP stroke
54 13 54 13 53 13 54 13 53 13 54 12 53 13 54 12 
54 13 53 12 54 12 53 12 54 11 53 12 54 11 53 11 
54 11 54 10 53 10 54 10 53 9 54 9 53 9 54 8 
53 8 54 7 54 7 53 6 54 6 53 6 54 4 53 5 
54 4 54 3 53 3 54 2 53 2 54 1 53 1 54 0 
53 -1 54 -1 54 -1 53 -2 54 -2 53 -3 54 -3 53 -4 
54 -4 53 -5 54 -5 54 -5 53 -5 54 -6 53 -6 54 -6 
53 -7 54 -7 54 -7 53 -7 54 -7 53 -7 54 -7 53 -7 
54 -8 53 -7 54 -8 54 -7 53 -7 54 -8 53 -7 54 -7 
53 -7 54 -7 53 -7 54 -7 54 -6 53 -7 54 -6 53 -7 
54 -6 53 -6 54 -6 54 -6 53 -6 54 -6 53 -5 54 -6 
53 -5 54 -6 53 -5 54 -5 54 -5 53 -6 54 -5 53 -5 
54 -5 53 -5 54 -5 53 -5 899 4616 101 MP stroke
6 w
gr

6 w
%%IncludeResource: font Helvetica
/Helvetica /WindowsLatin1Encoding 216 FMSR

5178 1378 mt 
(IV ) s
4849 3189 mt 
(III ) s
4098 3704 mt 
(II ) s
2648 3981 mt 
(I ) s
12 w
347 302 5487 1425 2 MP stroke
16 -18 -70 -29 39 65 15 -18 5834 1727 5 MP
PP
6 w
0 0 16 -18 -70 -29 39 65 15 -18 5834 1727 6 MP stroke
12 w
298 280 5106 3266 2 MP stroke
17 -18 -69 -32 36 67 16 -17 5404 3546 5 MP
PP
6 w
0 0 17 -18 -69 -32 36 67 16 -17 5404 3546 6 MP stroke
12 w
325 263 4304 3771 2 MP stroke
15 -18 -71 -27 41 63 15 -18 4629 4034 5 MP
PP
6 w
0 0 15 -18 -71 -27 41 63 15 -18 4629 4034 6 MP stroke
12 w
390 222 2792 4048 2 MP stroke
12 -21 -75 -15 51 57 12 -21 3182 4270 5 MP
PP
6 w
0 0 12 -21 -75 -15 51 57 12 -21 3182 4270 6 MP stroke

end

eplot
%%EndObject

epage
end

showpage

%%Trailer
%%EOF
